{
    "tweet_0": {
        "tweet_id": 1063518336678539264,
        "author": 321533386,
        "text": "RT @EPhilippePM: On peut manifester mais bloquer un pays alors que les services d\u2019urgence peuvent avoir besoin de circuler, alors que tout\u2026",
        "date": "Fri Nov 16 19:45:05 +0000 2018",
        "hashtags": [],
        "number_of_retweets": 418,
        "number_of_likes": 2592
    },
    "tweet_1": {
        "tweet_id": 1063518739700899840,
        "author": 4903213449,
        "text": "RT @EPhilippePM: Avec la prime \u00e0 la conversion, les Fran\u00e7ais peuvent acc\u00e9der \u00e0 des v\u00e9hicules qui consomment moins et qui polluent moins. C\u2019\u2026",
        "date": "Fri Nov 16 19:46:41 +0000 2018",
        "hashtags": [],
        "number_of_retweets": 118,
        "number_of_likes": 1263
    },
    "tweet_2": {
        "tweet_id": 1063499938359726080,
        "author": 4869898038,
        "text": "RT @EPhilippePM: L\u2019objectif des mesures du Gouvernement : donner les moyens aux Fran\u00e7ais d\u2019acc\u00e9der \u00e0 des v\u00e9hicules plus r\u00e9cents qui consomm\u2026",
        "date": "Fri Nov 16 18:31:58 +0000 2018",
        "hashtags": [],
        "number_of_retweets": 59,
        "number_of_likes": 3964
    },
    "tweet_3": {
        "tweet_id": 1063515508048371715,
        "author": 495349482,
        "text": "RT @EPhilippePM: \u00c0 l\u2019autodrome de Linas-Montlh\u00e9ry, o\u00f9 sont test\u00e9es les consommations et les \u00e9missions des v\u00e9hicules, pour mesurer l\u2019impact\u2026",
        "date": "Fri Nov 16 19:33:50 +0000 2018",
        "hashtags": [],
        "number_of_retweets": 51,
        "number_of_likes": 24862
    }
}