{
    "tweet_0": {
        "tweet_id": 1063518784873512963,
        "author": 1438742346,
        "text": "RT @tvlofficiel: Le pr\u00e9sident fran\u00e7ais, Emmanuel #Macron a fait savoir ce mercredi que son pays \ud83c\uddeb\ud83c\uddf7 comptait accorder aux alg\u00e9riens \ud83c\udde9\ud83c\uddff de no\u2026",
        "date": "Fri Nov 16 19:46:52 +0000 2018",
        "hashtags": [
            {
                "text": "Macron",
                "indices": [
                    49,
                    56
                ]
            }
        ],
        "number_of_retweets": 755,
        "number_of_likes": 863
    },
    "tweet_1": {
        "tweet_id": 1063518775641874442,
        "author": 920329064744878081,
        "text": "RT @tvlofficiel: Le pr\u00e9sident fran\u00e7ais, Emmanuel #Macron a fait savoir ce mercredi que son pays \ud83c\uddeb\ud83c\uddf7 comptait accorder aux alg\u00e9riens \ud83c\udde9\ud83c\uddff de no\u2026",
        "date": "Fri Nov 16 19:46:49 +0000 2018",
        "hashtags": [
            {
                "text": "Macron",
                "indices": [
                    49,
                    56
                ]
            }
        ],
        "number_of_retweets": 755,
        "number_of_likes": 7285
    },
    "tweet_2": {
        "tweet_id": 1063518742049693696,
        "author": 912024027195207680,
        "text": "M\u00eame Hollande trouve Macron  mauvais!\nIncroyable\n\nIl ne faut pas faire la le\u00e7on aux Fran\u00e7ais\" : l'avertissement de\u2026 https://t.co/8pDsRNoTzK",
        "date": "Fri Nov 16 19:46:41 +0000 2018",
        "hashtags": [],
        "number_of_retweets": 0,
        "number_of_likes": 362
    },
    "tweet_3": {
        "tweet_id": 1063518742028664833,
        "author": 759371444988043264,
        "text": "RT @Valeurs: Emmanuel Macron n'ira pas au congr\u00e8s des maires de France &gt;&gt; https://t.co/z7aYHknKiD https://t.co/P7V18U7WkB",
        "date": "Fri Nov 16 19:46:41 +0000 2018",
        "hashtags": [],
        "number_of_retweets": 51,
        "number_of_likes": 26975
    },
    "tweet_4": {
        "tweet_id": 1063518735556886528,
        "author": 1008426184416382978,
        "text": "RT @MarcGral: Voil\u00e0 que l\u2019@Elysee accr\u00e9dite Russia Today maintenant (via @Qofficiel )\nJe ne sais pas quel conseiller a sugg\u00e9r\u00e9 \u00e7a \u00e0 @Emmanu\u2026",
        "date": "Fri Nov 16 19:46:40 +0000 2018",
        "hashtags": [],
        "number_of_retweets": 2,
        "number_of_likes": 7717
    },
    "tweet_5": {
        "tweet_id": 1063518669047775233,
        "author": 562329205,
        "text": "RT @Brevesdepresse: \u26a1\ud83c\uddeb\ud83c\uddf7INFO - #17novembre: \"La situation est insaisissable\" s'inqui\u00e8te le ministre de l'Int\u00e9rieur selon Le Canard Encha\u00een\u00e9.\u2026",
        "date": "Fri Nov 16 19:46:24 +0000 2018",
        "hashtags": [
            {
                "text": "17novembre",
                "indices": [
                    30,
                    41
                ]
            }
        ],
        "number_of_retweets": 165,
        "number_of_likes": 2604
    },
    "tweet_6": {
        "tweet_id": 1063518600466759680,
        "author": 235910137,
        "text": "RT @leJDD: \"Je m'engage \u00e0 une chose, si vous l'acceptez, c'est venir chaque ann\u00e9e\", avait dit Macron l'an dernier lors du Congr\u00e8s des maire\u2026",
        "date": "Fri Nov 16 19:46:08 +0000 2018",
        "hashtags": [],
        "number_of_retweets": 82,
        "number_of_likes": 93659
    },
    "tweet_7": {
        "tweet_id": 1063518570016059392,
        "author": 2810717458,
        "text": "France : la sous-merde de  #Macron atteint des sommets d\u2019impopularit\u00e9 et de critiques \ud83d\udca9\ud83d\udc4d\ud83d\udd25\ud83d\udca5\ud83d\udca9\ud83d\udc4d\ud83d\udd25\ud83d\udca5 #MacronDemission\u2026 https://t.co/QHV8JC6sli",
        "date": "Fri Nov 16 19:46:00 +0000 2018",
        "hashtags": [
            {
                "text": "Macron",
                "indices": [
                    27,
                    34
                ]
            },
            {
                "text": "MacronDemission",
                "indices": [
                    95,
                    111
                ]
            }
        ],
        "number_of_retweets": 0,
        "number_of_likes": 154
    },
    "tweet_8": {
        "tweet_id": 1063518546469285888,
        "author": 275948503,
        "text": "RT @MichelSain: Emmanuel Macron se souviendra de ce 17 novembre 2018   D\u00c9MISSION DU GOUVERNEMENT MACRON - Signez la p\u00e9tition\u00a0! https://t.co\u2026",
        "date": "Fri Nov 16 19:45:55 +0000 2018",
        "hashtags": [],
        "number_of_retweets": 1,
        "number_of_likes": 348
    },
    "tweet_9": {
        "tweet_id": 1063518508057878529,
        "author": 576150916,
        "text": "France : la sous-merde de  #Macron atteint des sommets d\u2019impopularit\u00e9 et de critiques \ud83d\udca9\ud83d\udc4d\ud83d\udd25\ud83d\udca5\ud83d\udca9\ud83d\udc4d\ud83d\udd25\ud83d\udca5 #MacronDemission\u2026 https://t.co/7uQpvz5iFZ",
        "date": "Fri Nov 16 19:45:46 +0000 2018",
        "hashtags": [
            {
                "text": "Macron",
                "indices": [
                    27,
                    34
                ]
            },
            {
                "text": "MacronDemission",
                "indices": [
                    95,
                    111
                ]
            }
        ],
        "number_of_retweets": 0,
        "number_of_likes": 173
    },
    "tweet_10": {
        "tweet_id": 1063518493251899392,
        "author": 3337295067,
        "text": "RT @JeanneMiau: @demontvalon1 @GDarmanin en 2016, le ministre de l'\u00c9conomie qu'\u00e9tait Emmanuel Macron ne tarissait  pas d'\u00e9loges \u00e0 l'\u00e9gard d\u2026",
        "date": "Fri Nov 16 19:45:42 +0000 2018",
        "hashtags": [],
        "number_of_retweets": 14,
        "number_of_likes": 95377
    },
    "tweet_11": {
        "tweet_id": 1063518491762933761,
        "author": 989527092,
        "text": "RT @EnModeMacaron: Salaires des conseillers minist\u00e9riels : une HAUSSE FOLLE depuis l\u2019arriv\u00e9e d\u2019Emmanuel Macron!\n\n\u274eChez Agn\u00e8s Buzyn = 11.100\u2026",
        "date": "Fri Nov 16 19:45:42 +0000 2018",
        "hashtags": [],
        "number_of_retweets": 593,
        "number_of_likes": 282
    },
    "tweet_12": {
        "tweet_id": 1063518479414951936,
        "author": 2371812293,
        "text": "RT @dupontaignan: #Macron n'ira pas au Congr\u00e8s des Maires de France ! Il avait pourtant assur\u00e9 venir \"chaque ann\u00e9e rendre compte de [ses] e\u2026",
        "date": "Fri Nov 16 19:45:39 +0000 2018",
        "hashtags": [
            {
                "text": "Macron",
                "indices": [
                    18,
                    25
                ]
            }
        ],
        "number_of_retweets": 109,
        "number_of_likes": 2456
    },
    "tweet_13": {
        "tweet_id": 1063518462495072257,
        "author": 846280125285089280,
        "text": "RT @gaga5012: Petit rappel: @rglucks1\n@placepublique_\n\nRapha\u00ebl Glucksmann vote pour\u00a0Beno\u00eet Hamon\u00a0au premier tour de l'\u00e9lection pr\u00e9sidentiel\u2026",
        "date": "Fri Nov 16 19:45:35 +0000 2018",
        "hashtags": [],
        "number_of_retweets": 16,
        "number_of_likes": 5102
    },
    "tweet_14": {
        "tweet_id": 1063518439380328448,
        "author": 1216040916,
        "text": "RT @COSTESLionelEr: Une visite express du pr\u00e9sident @EmmanuelMacron qui a particip\u00e9 ce jeudi \u00e0 l\u2019inauguration de la premi\u00e8re ligne de train\u2026",
        "date": "Fri Nov 16 19:45:29 +0000 2018",
        "hashtags": [],
        "number_of_retweets": 1,
        "number_of_likes": 8846
    },
    "tweet_15": {
        "tweet_id": 1063518784873512963,
        "author": 1438742346,
        "text": "RT @tvlofficiel: Le pr\u00e9sident fran\u00e7ais, Emmanuel #Macron a fait savoir ce mercredi que son pays \ud83c\uddeb\ud83c\uddf7 comptait accorder aux alg\u00e9riens \ud83c\udde9\ud83c\uddff de no\u2026",
        "date": "Fri Nov 16 19:46:52 +0000 2018",
        "hashtags": [
            {
                "text": "Macron",
                "indices": [
                    49,
                    56
                ]
            }
        ],
        "number_of_retweets": 755,
        "number_of_likes": 863
    },
    "tweet_16": {
        "tweet_id": 1063518775641874442,
        "author": 920329064744878081,
        "text": "RT @tvlofficiel: Le pr\u00e9sident fran\u00e7ais, Emmanuel #Macron a fait savoir ce mercredi que son pays \ud83c\uddeb\ud83c\uddf7 comptait accorder aux alg\u00e9riens \ud83c\udde9\ud83c\uddff de no\u2026",
        "date": "Fri Nov 16 19:46:49 +0000 2018",
        "hashtags": [
            {
                "text": "Macron",
                "indices": [
                    49,
                    56
                ]
            }
        ],
        "number_of_retweets": 755,
        "number_of_likes": 7285
    },
    "tweet_17": {
        "tweet_id": 1063518742049693696,
        "author": 912024027195207680,
        "text": "M\u00eame Hollande trouve Macron  mauvais!\nIncroyable\n\nIl ne faut pas faire la le\u00e7on aux Fran\u00e7ais\" : l'avertissement de\u2026 https://t.co/8pDsRNoTzK",
        "date": "Fri Nov 16 19:46:41 +0000 2018",
        "hashtags": [],
        "number_of_retweets": 0,
        "number_of_likes": 362
    },
    "tweet_18": {
        "tweet_id": 1063518742028664833,
        "author": 759371444988043264,
        "text": "RT @Valeurs: Emmanuel Macron n'ira pas au congr\u00e8s des maires de France &gt;&gt; https://t.co/z7aYHknKiD https://t.co/P7V18U7WkB",
        "date": "Fri Nov 16 19:46:41 +0000 2018",
        "hashtags": [],
        "number_of_retweets": 51,
        "number_of_likes": 26975
    },
    "tweet_19": {
        "tweet_id": 1063518735556886528,
        "author": 1008426184416382978,
        "text": "RT @MarcGral: Voil\u00e0 que l\u2019@Elysee accr\u00e9dite Russia Today maintenant (via @Qofficiel )\nJe ne sais pas quel conseiller a sugg\u00e9r\u00e9 \u00e7a \u00e0 @Emmanu\u2026",
        "date": "Fri Nov 16 19:46:40 +0000 2018",
        "hashtags": [],
        "number_of_retweets": 2,
        "number_of_likes": 7717
    },
    "tweet_20": {
        "tweet_id": 1063518669047775233,
        "author": 562329205,
        "text": "RT @Brevesdepresse: \u26a1\ud83c\uddeb\ud83c\uddf7INFO - #17novembre: \"La situation est insaisissable\" s'inqui\u00e8te le ministre de l'Int\u00e9rieur selon Le Canard Encha\u00een\u00e9.\u2026",
        "date": "Fri Nov 16 19:46:24 +0000 2018",
        "hashtags": [
            {
                "text": "17novembre",
                "indices": [
                    30,
                    41
                ]
            }
        ],
        "number_of_retweets": 165,
        "number_of_likes": 2604
    },
    "tweet_21": {
        "tweet_id": 1063518600466759680,
        "author": 235910137,
        "text": "RT @leJDD: \"Je m'engage \u00e0 une chose, si vous l'acceptez, c'est venir chaque ann\u00e9e\", avait dit Macron l'an dernier lors du Congr\u00e8s des maire\u2026",
        "date": "Fri Nov 16 19:46:08 +0000 2018",
        "hashtags": [],
        "number_of_retweets": 82,
        "number_of_likes": 93659
    },
    "tweet_22": {
        "tweet_id": 1063518570016059392,
        "author": 2810717458,
        "text": "France : la sous-merde de  #Macron atteint des sommets d\u2019impopularit\u00e9 et de critiques \ud83d\udca9\ud83d\udc4d\ud83d\udd25\ud83d\udca5\ud83d\udca9\ud83d\udc4d\ud83d\udd25\ud83d\udca5 #MacronDemission\u2026 https://t.co/QHV8JC6sli",
        "date": "Fri Nov 16 19:46:00 +0000 2018",
        "hashtags": [
            {
                "text": "Macron",
                "indices": [
                    27,
                    34
                ]
            },
            {
                "text": "MacronDemission",
                "indices": [
                    95,
                    111
                ]
            }
        ],
        "number_of_retweets": 0,
        "number_of_likes": 154
    },
    "tweet_23": {
        "tweet_id": 1063518546469285888,
        "author": 275948503,
        "text": "RT @MichelSain: Emmanuel Macron se souviendra de ce 17 novembre 2018   D\u00c9MISSION DU GOUVERNEMENT MACRON - Signez la p\u00e9tition\u00a0! https://t.co\u2026",
        "date": "Fri Nov 16 19:45:55 +0000 2018",
        "hashtags": [],
        "number_of_retweets": 1,
        "number_of_likes": 348
    },
    "tweet_24": {
        "tweet_id": 1063518508057878529,
        "author": 576150916,
        "text": "France : la sous-merde de  #Macron atteint des sommets d\u2019impopularit\u00e9 et de critiques \ud83d\udca9\ud83d\udc4d\ud83d\udd25\ud83d\udca5\ud83d\udca9\ud83d\udc4d\ud83d\udd25\ud83d\udca5 #MacronDemission\u2026 https://t.co/7uQpvz5iFZ",
        "date": "Fri Nov 16 19:45:46 +0000 2018",
        "hashtags": [
            {
                "text": "Macron",
                "indices": [
                    27,
                    34
                ]
            },
            {
                "text": "MacronDemission",
                "indices": [
                    95,
                    111
                ]
            }
        ],
        "number_of_retweets": 0,
        "number_of_likes": 173
    },
    "tweet_25": {
        "tweet_id": 1063518493251899392,
        "author": 3337295067,
        "text": "RT @JeanneMiau: @demontvalon1 @GDarmanin en 2016, le ministre de l'\u00c9conomie qu'\u00e9tait Emmanuel Macron ne tarissait  pas d'\u00e9loges \u00e0 l'\u00e9gard d\u2026",
        "date": "Fri Nov 16 19:45:42 +0000 2018",
        "hashtags": [],
        "number_of_retweets": 14,
        "number_of_likes": 95377
    },
    "tweet_26": {
        "tweet_id": 1063518491762933761,
        "author": 989527092,
        "text": "RT @EnModeMacaron: Salaires des conseillers minist\u00e9riels : une HAUSSE FOLLE depuis l\u2019arriv\u00e9e d\u2019Emmanuel Macron!\n\n\u274eChez Agn\u00e8s Buzyn = 11.100\u2026",
        "date": "Fri Nov 16 19:45:42 +0000 2018",
        "hashtags": [],
        "number_of_retweets": 593,
        "number_of_likes": 282
    },
    "tweet_27": {
        "tweet_id": 1063518479414951936,
        "author": 2371812293,
        "text": "RT @dupontaignan: #Macron n'ira pas au Congr\u00e8s des Maires de France ! Il avait pourtant assur\u00e9 venir \"chaque ann\u00e9e rendre compte de [ses] e\u2026",
        "date": "Fri Nov 16 19:45:39 +0000 2018",
        "hashtags": [
            {
                "text": "Macron",
                "indices": [
                    18,
                    25
                ]
            }
        ],
        "number_of_retweets": 109,
        "number_of_likes": 2456
    },
    "tweet_28": {
        "tweet_id": 1063518462495072257,
        "author": 846280125285089280,
        "text": "RT @gaga5012: Petit rappel: @rglucks1\n@placepublique_\n\nRapha\u00ebl Glucksmann vote pour\u00a0Beno\u00eet Hamon\u00a0au premier tour de l'\u00e9lection pr\u00e9sidentiel\u2026",
        "date": "Fri Nov 16 19:45:35 +0000 2018",
        "hashtags": [],
        "number_of_retweets": 16,
        "number_of_likes": 5102
    },
    "tweet_29": {
        "tweet_id": 1063518439380328448,
        "author": 1216040916,
        "text": "RT @COSTESLionelEr: Une visite express du pr\u00e9sident @EmmanuelMacron qui a particip\u00e9 ce jeudi \u00e0 l\u2019inauguration de la premi\u00e8re ligne de train\u2026",
        "date": "Fri Nov 16 19:45:29 +0000 2018",
        "hashtags": [],
        "number_of_retweets": 1,
        "number_of_likes": 8846
    },
    "tweet_30": {
        "tweet_id": 1063518834601144320,
        "author": 817167901073506304,
        "text": "RT @LoveSexWithYouu: Mr Macron il semblerait que les retrait\u00e9s est un message pour vous https://t.co/hfBkXQ2oAA",
        "date": "Fri Nov 16 19:47:04 +0000 2018",
        "hashtags": [],
        "number_of_retweets": 511,
        "number_of_likes": 9196
    },
    "tweet_31": {
        "tweet_id": 1063518828594954240,
        "author": 821015178057842692,
        "text": "RT @_polemia: \u270a Les gilets jaunes, aussi \u00ab fachos \u00bb que f\u00e2ch\u00e9s ?\n\u2694\ufe0f Macron et  Trump, de l\u2019armistice \u00e0 la guerre ?\n\ud83e\udd2b Macron et Facebook \u00e0 m\u2026",
        "date": "Fri Nov 16 19:47:02 +0000 2018",
        "hashtags": [],
        "number_of_retweets": 2,
        "number_of_likes": 19878
    },
    "tweet_32": {
        "tweet_id": 1063518826799775746,
        "author": 2983945431,
        "text": "Dupont-Aignan : \u00abMacron attaque Trump et Salvini et fait un tapis devant Erdogan, les Fr\u00e8res Musulmans. Le pauvre p\u2026 https://t.co/TJta9pZfvf",
        "date": "Fri Nov 16 19:47:02 +0000 2018",
        "hashtags": [],
        "number_of_retweets": 0,
        "number_of_likes": 94238
    },
    "tweet_33": {
        "tweet_id": 1063518817953951746,
        "author": 3617348775,
        "text": "@Henda_Ayari La justice fran\u00e7aise de Macron est impressionnante avec cette communaut\u00e9 \ud83d\ude31 laisser ressortir un violeur",
        "date": "Fri Nov 16 19:47:00 +0000 2018",
        "hashtags": [],
        "number_of_retweets": 0,
        "number_of_likes": 1572
    },
    "tweet_34": {
        "tweet_id": 1063518804079202307,
        "author": 88880205,
        "text": "RT @PNerval: Macron, Philippe, ...\npensez-vous que ceux qui ont pris la Bastille ont d\u00e9pos\u00e9 une demande en pr\u00e9fecture ?\ud83e\udd14",
        "date": "Fri Nov 16 19:46:56 +0000 2018",
        "hashtags": [],
        "number_of_retweets": 54,
        "number_of_likes": 39357
    },
    "tweet_35": {
        "tweet_id": 1063518802351177728,
        "author": 873197630632972288,
        "text": "RT @alexiscorbiere: \u00ab\u00a0Le peuple est en col\u00e8re et le pays peut entrer dans une p\u00e9riode de grande turbulence. Les citoyens exigent plus d\u2019\u00e9ga\u2026",
        "date": "Fri Nov 16 19:46:56 +0000 2018",
        "hashtags": [],
        "number_of_retweets": 19,
        "number_of_likes": 5847
    },
    "tweet_36": {
        "tweet_id": 1063518798144258048,
        "author": 2225536412,
        "text": "@le_Parisien Quand est ce que #Macron va se pr\u00e9occuper des Marseillais ? \ud83e\udd14\nAucun deplacement \u00e0 #Marseille ... aucun\u2026 https://t.co/7hpbQO5Es5",
        "date": "Fri Nov 16 19:46:55 +0000 2018",
        "hashtags": [
            {
                "text": "Macron",
                "indices": [
                    30,
                    37
                ]
            },
            {
                "text": "Marseille",
                "indices": [
                    95,
                    105
                ]
            }
        ],
        "number_of_retweets": 0,
        "number_of_likes": 4524
    },
    "tweet_37": {
        "tweet_id": 1063518794000289801,
        "author": 988769764922281984,
        "text": "RT @FranceIZA: @nadiamtp Parce que \u00e7a a toujours \u00e9t\u00e9 le projet de c immondes dirigeants..islamiser la France\ud83d\ude21\ud83c\udd98\ufe0f\u26d4on crache sur les chr\u00e9tiens\u2026",
        "date": "Fri Nov 16 19:46:54 +0000 2018",
        "hashtags": [],
        "number_of_retweets": 8,
        "number_of_likes": 4620
    },
    "tweet_38": {
        "tweet_id": 1063518792331026432,
        "author": 2248734988,
        "text": "RT @MzlleJacqueline: Gazage par les #CRS pendant la #manif contre #macron venu inaugur\u00e9 le #MBAA \u00e0 #Besan\u00e7on #fousseret https://t.co/NIAYl5\u2026",
        "date": "Fri Nov 16 19:46:53 +0000 2018",
        "hashtags": [
            {
                "text": "CRS",
                "indices": [
                    36,
                    40
                ]
            },
            {
                "text": "manif",
                "indices": [
                    52,
                    58
                ]
            },
            {
                "text": "macron",
                "indices": [
                    66,
                    73
                ]
            },
            {
                "text": "MBAA",
                "indices": [
                    91,
                    96
                ]
            },
            {
                "text": "Besan\u00e7on",
                "indices": [
                    99,
                    108
                ]
            },
            {
                "text": "fousseret",
                "indices": [
                    109,
                    119
                ]
            }
        ],
        "number_of_retweets": 327,
        "number_of_likes": 4640
    },
    "tweet_39": {
        "tweet_id": 1063518786949705733,
        "author": 547832856,
        "text": "Une bretonne: j\u2019ai vot\u00e9 Macron en pensant voter le moins pire. Maintenant je regrette...Et oui Madame le mal \u00e9tait\u2026 https://t.co/4wL8zmdWoE",
        "date": "Fri Nov 16 19:46:52 +0000 2018",
        "hashtags": [],
        "number_of_retweets": 0,
        "number_of_likes": 20417
    },
    "tweet_40": {
        "tweet_id": 1063518784873512963,
        "author": 1438742346,
        "text": "RT @tvlofficiel: Le pr\u00e9sident fran\u00e7ais, Emmanuel #Macron a fait savoir ce mercredi que son pays \ud83c\uddeb\ud83c\uddf7 comptait accorder aux alg\u00e9riens \ud83c\udde9\ud83c\uddff de no\u2026",
        "date": "Fri Nov 16 19:46:52 +0000 2018",
        "hashtags": [
            {
                "text": "Macron",
                "indices": [
                    49,
                    56
                ]
            }
        ],
        "number_of_retweets": 755,
        "number_of_likes": 863
    },
    "tweet_41": {
        "tweet_id": 1063518776627523584,
        "author": 1012883516,
        "text": "RT @KaizuPlantu: Les routes bloqu\u00e9es par les gilets jaunes ???? Jupiter 1er (=Macron) n'en a que faire lui qui poss\u00e8de un jet priv\u00e9 en or p\u2026",
        "date": "Fri Nov 16 19:46:50 +0000 2018",
        "hashtags": [],
        "number_of_retweets": 141,
        "number_of_likes": 1296
    },
    "tweet_42": {
        "tweet_id": 1063518775641874442,
        "author": 920329064744878081,
        "text": "RT @tvlofficiel: Le pr\u00e9sident fran\u00e7ais, Emmanuel #Macron a fait savoir ce mercredi que son pays \ud83c\uddeb\ud83c\uddf7 comptait accorder aux alg\u00e9riens \ud83c\udde9\ud83c\uddff de no\u2026",
        "date": "Fri Nov 16 19:46:49 +0000 2018",
        "hashtags": [
            {
                "text": "Macron",
                "indices": [
                    49,
                    56
                ]
            }
        ],
        "number_of_retweets": 755,
        "number_of_likes": 7285
    },
    "tweet_43": {
        "tweet_id": 1063518768838729728,
        "author": 705893955330838528,
        "text": "RT @Miss_STRAL: L\u00e0 aussi, pas une allusion dans les m\u00e9dias, pas un mot dans les d\u00e9bats, mais en ce #17novembre les #giletsjaunes, nous d\u00e9fe\u2026",
        "date": "Fri Nov 16 19:46:48 +0000 2018",
        "hashtags": [
            {
                "text": "17novembre",
                "indices": [
                    99,
                    110
                ]
            },
            {
                "text": "giletsjaunes",
                "indices": [
                    115,
                    128
                ]
            }
        ],
        "number_of_retweets": 2,
        "number_of_likes": 17523
    },
    "tweet_44": {
        "tweet_id": 1063518763172139008,
        "author": 789238745254027266,
        "text": "RT @JLMelenchon: Carburants : Macron nous fait payer pour les riches\n\nLe #17novembre, il faut un rapport de force \u00e9norme face au budget mac\u2026",
        "date": "Fri Nov 16 19:46:47 +0000 2018",
        "hashtags": [
            {
                "text": "17novembre",
                "indices": [
                    73,
                    84
                ]
            }
        ],
        "number_of_retweets": 942,
        "number_of_likes": 10369
    },
    "tweet_45": {
        "tweet_id": 1063518840305475586,
        "author": 1026427638079016960,
        "text": "RT @citoyenneFrance: - Dupont-Aignan : \u00abMacron attaque Trump et Salvini et fait un tapis devant Erdogan, les Fr\u00e8res Musulmans. Le pauvre pr\u2026",
        "date": "Fri Nov 16 19:47:05 +0000 2018",
        "hashtags": [],
        "number_of_retweets": 4,
        "number_of_likes": 3249
    },
    "tweet_46": {
        "tweet_id": 1063518826799775746,
        "author": 2983945431,
        "text": "Dupont-Aignan : \u00abMacron attaque Trump et Salvini et fait un tapis devant Erdogan, les Fr\u00e8res Musulmans. Le pauvre p\u2026 https://t.co/TJta9pZfvf",
        "date": "Fri Nov 16 19:47:02 +0000 2018",
        "hashtags": [],
        "number_of_retweets": 0,
        "number_of_likes": 94238
    },
    "tweet_47": {
        "tweet_id": 1063518807463989250,
        "author": 835059006892732416,
        "text": "Le pr\u00e9sident Trump doit suivre de pr\u00e8s tout cela pour se moquer de nous apr\u00e8s. Laisser agir les gilets jaunes  les\u2026 https://t.co/opRnGQPPRZ",
        "date": "Fri Nov 16 19:46:57 +0000 2018",
        "hashtags": [],
        "number_of_retweets": 0,
        "number_of_likes": 38
    },
    "tweet_48": {
        "tweet_id": 1063518800572747779,
        "author": 2906712520,
        "text": "RT @tendancesmusic: . \u00ab\u00a0Je demande des efforts aux #Fran\u00e7ais \u00a0\ud83d\ude31\ud83d\ude02\ud83d\udc49 14 500\u20ac par mois et 0 imp\u00f4t \u00e0 payer, Richard Ferrand Pr\u00e9sident de l\u2019Assem\u2026",
        "date": "Fri Nov 16 19:46:55 +0000 2018",
        "hashtags": [
            {
                "text": "Fran\u00e7ais",
                "indices": [
                    51,
                    60
                ]
            }
        ],
        "number_of_retweets": 115,
        "number_of_likes": 6994
    },
    "tweet_49": {
        "tweet_id": 1063518795669651457,
        "author": 64218258,
        "text": "@swisscryptocat @CryptoFR Tout est dans la com, \u00e0 l\u2019image de notre beau pr\u00e9sident",
        "date": "Fri Nov 16 19:46:54 +0000 2018",
        "hashtags": [],
        "number_of_retweets": 0,
        "number_of_likes": 4064
    },
    "tweet_50": {
        "tweet_id": 1063518790292512769,
        "author": 2258904588,
        "text": "@gouvernementFR Bande de demagos... Et les avions et voitures de nos trop chers ministres et pr\u00e9sident ?",
        "date": "Fri Nov 16 19:46:53 +0000 2018",
        "hashtags": [],
        "number_of_retweets": 0,
        "number_of_likes": 542
    },
    "tweet_51": {
        "tweet_id": 1063518784873512963,
        "author": 1438742346,
        "text": "RT @tvlofficiel: Le pr\u00e9sident fran\u00e7ais, Emmanuel #Macron a fait savoir ce mercredi que son pays \ud83c\uddeb\ud83c\uddf7 comptait accorder aux alg\u00e9riens \ud83c\udde9\ud83c\uddff de no\u2026",
        "date": "Fri Nov 16 19:46:52 +0000 2018",
        "hashtags": [
            {
                "text": "Macron",
                "indices": [
                    49,
                    56
                ]
            }
        ],
        "number_of_retweets": 755,
        "number_of_likes": 863
    },
    "tweet_52": {
        "tweet_id": 1063518778561052672,
        "author": 490570020,
        "text": "RT @sophierauszer: Nous @FranceInsoumise ne sommes visiblement pas les seuls \u00e0 penser qu\u2019il y a un probl\u00e8me d\u2019ind\u00e9pendance avec ce pr\u00e9siden\u2026",
        "date": "Fri Nov 16 19:46:50 +0000 2018",
        "hashtags": [],
        "number_of_retweets": 12,
        "number_of_likes": 37798
    },
    "tweet_53": {
        "tweet_id": 1063518775641874442,
        "author": 920329064744878081,
        "text": "RT @tvlofficiel: Le pr\u00e9sident fran\u00e7ais, Emmanuel #Macron a fait savoir ce mercredi que son pays \ud83c\uddeb\ud83c\uddf7 comptait accorder aux alg\u00e9riens \ud83c\udde9\ud83c\uddff de no\u2026",
        "date": "Fri Nov 16 19:46:49 +0000 2018",
        "hashtags": [
            {
                "text": "Macron",
                "indices": [
                    49,
                    56
                ]
            }
        ],
        "number_of_retweets": 755,
        "number_of_likes": 7285
    },
    "tweet_54": {
        "tweet_id": 1063518772047331329,
        "author": 89475226,
        "text": "RT @FUB_fr: #Tribune \"Nous sommes entre le 11-Novembre et le mouvement des \u201cgilets jaunes\u201d. Et je me pose une question : \u201cQue pourrions-nou\u2026",
        "date": "Fri Nov 16 19:46:49 +0000 2018",
        "hashtags": [
            {
                "text": "Tribune",
                "indices": [
                    12,
                    20
                ]
            }
        ],
        "number_of_retweets": 31,
        "number_of_likes": 42528
    },
    "tweet_55": {
        "tweet_id": 1063518770835202054,
        "author": 995784223448621056,
        "text": "@Jeffyx Je pense que tu ne saisis pas totalement l'ampleur du truc l\u00e0, moi pr\u00e9sident tu serais ex\u00e9cut\u00e9 en place publique",
        "date": "Fri Nov 16 19:46:48 +0000 2018",
        "hashtags": [],
        "number_of_retweets": 0,
        "number_of_likes": 1710
    },
    "tweet_56": {
        "tweet_id": 1063518764547870725,
        "author": 1022843163478814726,
        "text": "RT @mass213_: les stmg on leur demande le nom du pr\u00e9sident au bac et ils osent se comparer aux ES",
        "date": "Fri Nov 16 19:46:47 +0000 2018",
        "hashtags": [],
        "number_of_retweets": 779,
        "number_of_likes": 7145
    },
    "tweet_57": {
        "tweet_id": 1063518755458818060,
        "author": 716746618037530626,
        "text": "RT @mass213_: les stmg on leur demande le nom du pr\u00e9sident au bac et ils osent se comparer aux ES",
        "date": "Fri Nov 16 19:46:45 +0000 2018",
        "hashtags": [],
        "number_of_retweets": 779,
        "number_of_likes": 4029
    },
    "tweet_58": {
        "tweet_id": 1063518747242242048,
        "author": 970008204942946305,
        "text": "RT @mass213_: les stmg on leur demande le nom du pr\u00e9sident au bac et ils osent se comparer aux ES",
        "date": "Fri Nov 16 19:46:43 +0000 2018",
        "hashtags": [],
        "number_of_retweets": 779,
        "number_of_likes": 7233
    },
    "tweet_59": {
        "tweet_id": 1063518743681269761,
        "author": 1056108884144939010,
        "text": "RT @mass213_: les stmg on leur demande le nom du pr\u00e9sident au bac et ils osent se comparer aux ES",
        "date": "Fri Nov 16 19:46:42 +0000 2018",
        "hashtags": [],
        "number_of_retweets": 779,
        "number_of_likes": 396
    },
    "tweet_60": {
        "tweet_id": 1063518714245644288,
        "author": 749703696347463680,
        "text": "RT @Abbe_Rezina: Le gouffre qui s\u00e9pare #EmmanuelMacron des Fran\u00e7ais ne va cesser de s'agrandir, Son verbe n'est plus \u00ab magique \u00bb.\n\nLe pays\u2026",
        "date": "Fri Nov 16 19:46:35 +0000 2018",
        "hashtags": [
            {
                "text": "EmmanuelMacron",
                "indices": [
                    39,
                    54
                ]
            }
        ],
        "number_of_retweets": 4,
        "number_of_likes": 73
    },
    "tweet_61": {
        "tweet_id": 1063518503938985984,
        "author": 72819164,
        "text": "@Jikampek1 @_Stalker_69_ #EmmanuelMacron roi de la Com! Des mesurettes dont 80% des fran\u00e7ais sont exclus... Par con\u2026 https://t.co/RyrIKzzpWR",
        "date": "Fri Nov 16 19:45:45 +0000 2018",
        "hashtags": [
            {
                "text": "EmmanuelMacron",
                "indices": [
                    25,
                    40
                ]
            }
        ],
        "number_of_retweets": 0,
        "number_of_likes": 2164
    },
    "tweet_62": {
        "tweet_id": 1063518069019033600,
        "author": 991250053699375104,
        "text": "@QueenOfKillers1 Laissons lui le temps !#EmmanuelMacron",
        "date": "Fri Nov 16 19:44:01 +0000 2018",
        "hashtags": [
            {
                "text": "EmmanuelMacron",
                "indices": [
                    40,
                    55
                ]
            }
        ],
        "number_of_retweets": 0,
        "number_of_likes": 414
    },
    "tweet_63": {
        "tweet_id": 1063517954019651587,
        "author": 2564064211,
        "text": "RT @ISLEOFSKY4: #EmmanuelMacron\n\n\"Sur le plus beau tr\u00f4ne du monde , on n'est jamais assis que sur son cul.\"\n\nMontaigne. https://t.co/8xCcN9\u2026",
        "date": "Fri Nov 16 19:43:34 +0000 2018",
        "hashtags": [
            {
                "text": "EmmanuelMacron",
                "indices": [
                    16,
                    31
                ]
            }
        ],
        "number_of_retweets": 191,
        "number_of_likes": 17140
    },
    "tweet_64": {
        "tweet_id": 1063517769759682560,
        "author": 4382103083,
        "text": "RT @Abbe_Rezina: #EmmanuelMacron c'est Jacques Dutronc qui en parle le mieux \ud83d\ude09\ud83d\ude02\n\u266a\u266b\u266a Il est sympa et attirant \nMais m\u00e9fiez-vous : c'est un t\u2026",
        "date": "Fri Nov 16 19:42:50 +0000 2018",
        "hashtags": [
            {
                "text": "EmmanuelMacron",
                "indices": [
                    17,
                    32
                ]
            }
        ],
        "number_of_retweets": 47,
        "number_of_likes": 56597
    },
    "tweet_65": {
        "tweet_id": 1063517551806873600,
        "author": 2863702235,
        "text": "RT @Abbe_Rezina: #EmmanuelMacron c'est Jacques Dutronc qui en parle le mieux \ud83d\ude09\ud83d\ude02\n\u266a\u266b\u266a Il est sympa et attirant \nMais m\u00e9fiez-vous : c'est un t\u2026",
        "date": "Fri Nov 16 19:41:58 +0000 2018",
        "hashtags": [
            {
                "text": "EmmanuelMacron",
                "indices": [
                    17,
                    32
                ]
            }
        ],
        "number_of_retweets": 47,
        "number_of_likes": 3096
    },
    "tweet_66": {
        "tweet_id": 1063516315502153729,
        "author": 533098479,
        "text": "RT @Abbe_Rezina: #EmmanuelMacron c'est Jacques Dutronc qui en parle le mieux \ud83d\ude09\ud83d\ude02\n\u266a\u266b\u266a Il est sympa et attirant \nMais m\u00e9fiez-vous : c'est un t\u2026",
        "date": "Fri Nov 16 19:37:03 +0000 2018",
        "hashtags": [
            {
                "text": "EmmanuelMacron",
                "indices": [
                    17,
                    32
                ]
            }
        ],
        "number_of_retweets": 47,
        "number_of_likes": 22098
    },
    "tweet_67": {
        "tweet_id": 1063515386400907265,
        "author": 804474511,
        "text": "RT @Abbe_Rezina: #EmmanuelMacron c'est Jacques Dutronc qui en parle le mieux \ud83d\ude09\ud83d\ude02\n\u266a\u266b\u266a Il est sympa et attirant \nMais m\u00e9fiez-vous : c'est un t\u2026",
        "date": "Fri Nov 16 19:33:21 +0000 2018",
        "hashtags": [
            {
                "text": "EmmanuelMacron",
                "indices": [
                    17,
                    32
                ]
            }
        ],
        "number_of_retweets": 47,
        "number_of_likes": 47236
    },
    "tweet_68": {
        "tweet_id": 1063514543576555521,
        "author": 845997594883035137,
        "text": "RT @tcabarrus: Les #maires sont en pleine contradiction: 1- Tr\u00e8s m\u00e9fiants, voire hostiles envers #EmmanuelMacron et EdouardPhilippe; 2-Ils\u2026",
        "date": "Fri Nov 16 19:30:00 +0000 2018",
        "hashtags": [
            {
                "text": "maires",
                "indices": [
                    19,
                    26
                ]
            },
            {
                "text": "EmmanuelMacron",
                "indices": [
                    97,
                    112
                ]
            }
        ],
        "number_of_retweets": 31,
        "number_of_likes": 27125
    },
    "tweet_69": {
        "tweet_id": 1063513851071787010,
        "author": 899239538480082944,
        "text": "@jpm3759 Va dire \u00e7a \u00e0 #EmmanuelMacron",
        "date": "Fri Nov 16 19:27:15 +0000 2018",
        "hashtags": [
            {
                "text": "EmmanuelMacron",
                "indices": [
                    22,
                    37
                ]
            }
        ],
        "number_of_retweets": 0,
        "number_of_likes": 8505
    },
    "tweet_70": {
        "tweet_id": 1063513292973445122,
        "author": 594739923,
        "text": "RT @pierrecharon: L\u2019an dernier d\u00e9j\u00e0 le #S\u00e9nat avait refus\u00e9 de voter l\u2019augmentation des taxes sur le carburant \u2757\ufe0f#LesRep_Senat \ud83c\uddeb\ud83c\uddf7 r\u00e9pondent\u2026",
        "date": "Fri Nov 16 19:25:02 +0000 2018",
        "hashtags": [
            {
                "text": "S\u00e9nat",
                "indices": [
                    39,
                    45
                ]
            },
            {
                "text": "LesRep_Senat",
                "indices": [
                    112,
                    125
                ]
            }
        ],
        "number_of_retweets": 216,
        "number_of_likes": 20131
    },
    "tweet_71": {
        "tweet_id": 1063512848872210433,
        "author": 144214150,
        "text": "RT @tcabarrus: Les #maires sont en pleine contradiction: 1- Tr\u00e8s m\u00e9fiants, voire hostiles envers #EmmanuelMacron et EdouardPhilippe; 2-Ils\u2026",
        "date": "Fri Nov 16 19:23:16 +0000 2018",
        "hashtags": [
            {
                "text": "maires",
                "indices": [
                    19,
                    26
                ]
            },
            {
                "text": "EmmanuelMacron",
                "indices": [
                    97,
                    112
                ]
            }
        ],
        "number_of_retweets": 31,
        "number_of_likes": 1688
    },
    "tweet_72": {
        "tweet_id": 1063512194703400962,
        "author": 899239538480082944,
        "text": "Bercy la Bastille m\u00eame combat #gilletjaune #EmmanuelMacron",
        "date": "Fri Nov 16 19:20:40 +0000 2018",
        "hashtags": [
            {
                "text": "gilletjaune",
                "indices": [
                    30,
                    42
                ]
            },
            {
                "text": "EmmanuelMacron",
                "indices": [
                    43,
                    58
                ]
            }
        ],
        "number_of_retweets": 0,
        "number_of_likes": 8505
    },
    "tweet_73": {
        "tweet_id": 1063511979309047808,
        "author": 832274192670347265,
        "text": "RT @Abbe_Rezina: #EmmanuelMacron c'est Jacques Dutronc qui en parle le mieux \ud83d\ude09\ud83d\ude02\n\u266a\u266b\u266a Il est sympa et attirant \nMais m\u00e9fiez-vous : c'est un t\u2026",
        "date": "Fri Nov 16 19:19:49 +0000 2018",
        "hashtags": [
            {
                "text": "EmmanuelMacron",
                "indices": [
                    17,
                    32
                ]
            }
        ],
        "number_of_retweets": 47,
        "number_of_likes": 6813
    },
    "tweet_74": {
        "tweet_id": 1063510244779790336,
        "author": 912387599981060097,
        "text": "RT @Abbe_Rezina: #EmmanuelMacron c'est Jacques Dutronc qui en parle le mieux \ud83d\ude09\ud83d\ude02\n\u266a\u266b\u266a Il est sympa et attirant \nMais m\u00e9fiez-vous : c'est un t\u2026",
        "date": "Fri Nov 16 19:12:56 +0000 2018",
        "hashtags": [
            {
                "text": "EmmanuelMacron",
                "indices": [
                    17,
                    32
                ]
            }
        ],
        "number_of_retweets": 47,
        "number_of_likes": 12850
    },
    "tweet_75": {
        "tweet_id": 1063514361912791041,
        "author": 851798726,
        "text": "RT @saltarrello: Je me demande si quelqu'un d'important ne viendrait pas \u00e0 #Besancon ? Quelle #empreintecarbone pour un tel d\u00e9placement du\u2026",
        "date": "Fri Nov 16 19:29:17 +0000 2018",
        "hashtags": [
            {
                "text": "Besancon",
                "indices": [
                    75,
                    84
                ]
            },
            {
                "text": "empreintecarbone",
                "indices": [
                    94,
                    111
                ]
            }
        ],
        "number_of_retweets": 77,
        "number_of_likes": 23361
    },
    "tweet_76": {
        "tweet_id": 1063510930095509504,
        "author": 2248734988,
        "text": "RT @saltarrello: Je me demande si quelqu'un d'important ne viendrait pas \u00e0 #Besancon ? Quelle #empreintecarbone pour un tel d\u00e9placement du\u2026",
        "date": "Fri Nov 16 19:15:39 +0000 2018",
        "hashtags": [
            {
                "text": "Besancon",
                "indices": [
                    75,
                    84
                ]
            },
            {
                "text": "empreintecarbone",
                "indices": [
                    94,
                    111
                ]
            }
        ],
        "number_of_retweets": 77,
        "number_of_likes": 4640
    },
    "tweet_77": {
        "tweet_id": 1063509559355035648,
        "author": 871526921611481088,
        "text": "RT @Urtikan_net: le code de la route bient\u00f4t enseign\u00e9 \u00e0 l'\u00e9cole #DessinDuJour de @fdeligne #CodeDeLaRoute #EmmanuelMacron #Macron #France #\u2026",
        "date": "Fri Nov 16 19:10:12 +0000 2018",
        "hashtags": [
            {
                "text": "DessinDuJour",
                "indices": [
                    64,
                    77
                ]
            },
            {
                "text": "CodeDeLaRoute",
                "indices": [
                    91,
                    105
                ]
            },
            {
                "text": "EmmanuelMacron",
                "indices": [
                    106,
                    121
                ]
            },
            {
                "text": "Macron",
                "indices": [
                    122,
                    129
                ]
            },
            {
                "text": "France",
                "indices": [
                    130,
                    137
                ]
            }
        ],
        "number_of_retweets": 20,
        "number_of_likes": 127
    },
    "tweet_78": {
        "tweet_id": 1063508388884217856,
        "author": 2693577938,
        "text": "#Photos: VP #Kalonzo #Musyoka #Meets #Retired #President Moi as DP #Ruto #Long #Wait #Continues -\u2026 https://t.co/4Nv7lDgfhu",
        "date": "Fri Nov 16 19:05:33 +0000 2018",
        "hashtags": [
            {
                "text": "Photos",
                "indices": [
                    0,
                    7
                ]
            },
            {
                "text": "Kalonzo",
                "indices": [
                    12,
                    20
                ]
            },
            {
                "text": "Musyoka",
                "indices": [
                    21,
                    29
                ]
            },
            {
                "text": "Meets",
                "indices": [
                    30,
                    36
                ]
            },
            {
                "text": "Retired",
                "indices": [
                    37,
                    45
                ]
            },
            {
                "text": "President",
                "indices": [
                    46,
                    56
                ]
            },
            {
                "text": "Ruto",
                "indices": [
                    67,
                    72
                ]
            },
            {
                "text": "Long",
                "indices": [
                    73,
                    78
                ]
            },
            {
                "text": "Wait",
                "indices": [
                    79,
                    84
                ]
            },
            {
                "text": "Continues",
                "indices": [
                    85,
                    95
                ]
            }
        ],
        "number_of_retweets": 0,
        "number_of_likes": 1
    },
    "tweet_79": {
        "tweet_id": 1063507045394116615,
        "author": 1172324120,
        "text": "RT @saltarrello: Je me demande si quelqu'un d'important ne viendrait pas \u00e0 #Besancon ? Quelle #empreintecarbone pour un tel d\u00e9placement du\u2026",
        "date": "Fri Nov 16 19:00:13 +0000 2018",
        "hashtags": [
            {
                "text": "Besancon",
                "indices": [
                    75,
                    84
                ]
            },
            {
                "text": "empreintecarbone",
                "indices": [
                    94,
                    111
                ]
            }
        ],
        "number_of_retweets": 77,
        "number_of_likes": 7020
    },
    "tweet_80": {
        "tweet_id": 1063504745627873280,
        "author": 924694357005004801,
        "text": "RT @saltarrello: Je me demande si quelqu'un d'important ne viendrait pas \u00e0 #Besancon ? Quelle #empreintecarbone pour un tel d\u00e9placement du\u2026",
        "date": "Fri Nov 16 18:51:04 +0000 2018",
        "hashtags": [
            {
                "text": "Besancon",
                "indices": [
                    75,
                    84
                ]
            },
            {
                "text": "empreintecarbone",
                "indices": [
                    94,
                    111
                ]
            }
        ],
        "number_of_retweets": 77,
        "number_of_likes": 295
    },
    "tweet_81": {
        "tweet_id": 1063504453725298688,
        "author": 4249974982,
        "text": "RT @saltarrello: Je me demande si quelqu'un d'important ne viendrait pas \u00e0 #Besancon ? Quelle #empreintecarbone pour un tel d\u00e9placement du\u2026",
        "date": "Fri Nov 16 18:49:55 +0000 2018",
        "hashtags": [
            {
                "text": "Besancon",
                "indices": [
                    75,
                    84
                ]
            },
            {
                "text": "empreintecarbone",
                "indices": [
                    94,
                    111
                ]
            }
        ],
        "number_of_retweets": 77,
        "number_of_likes": 1714
    },
    "tweet_82": {
        "tweet_id": 1063503001338462208,
        "author": 2391345684,
        "text": "VIDEO: #President #Trump comments on Mueller questions https://t.co/NTctcQ0ndB",
        "date": "Fri Nov 16 18:44:09 +0000 2018",
        "hashtags": [
            {
                "text": "President",
                "indices": [
                    7,
                    17
                ]
            },
            {
                "text": "Trump",
                "indices": [
                    18,
                    24
                ]
            }
        ],
        "number_of_retweets": 0,
        "number_of_likes": 49751
    },
    "tweet_83": {
        "tweet_id": 1063495412819079169,
        "author": 1024273929974767616,
        "text": "RT @VerdierJouclas: Dans la d\u00e9l\u00e9gation fran\u00e7aise pour accompagner le #President @EmmanuelMacron : inauguration du #TGV #Tanger / \n#Rabat av\u2026",
        "date": "Fri Nov 16 18:13:59 +0000 2018",
        "hashtags": [
            {
                "text": "President",
                "indices": [
                    69,
                    79
                ]
            },
            {
                "text": "TGV",
                "indices": [
                    114,
                    118
                ]
            },
            {
                "text": "Tanger",
                "indices": [
                    119,
                    126
                ]
            },
            {
                "text": "Rabat",
                "indices": [
                    130,
                    136
                ]
            }
        ],
        "number_of_retweets": 14,
        "number_of_likes": 118
    },
    "tweet_84": {
        "tweet_id": 1063491550225813504,
        "author": 34695470,
        "text": "RT @saltarrello: Je me demande si quelqu'un d'important ne viendrait pas \u00e0 #Besancon ? Quelle #empreintecarbone pour un tel d\u00e9placement du\u2026",
        "date": "Fri Nov 16 17:58:38 +0000 2018",
        "hashtags": [
            {
                "text": "Besancon",
                "indices": [
                    75,
                    84
                ]
            },
            {
                "text": "empreintecarbone",
                "indices": [
                    94,
                    111
                ]
            }
        ],
        "number_of_retweets": 77,
        "number_of_likes": 5677
    },
    "tweet_85": {
        "tweet_id": 1063490160669745158,
        "author": 2267823667,
        "text": "RT @24hPujadas: \ud83c\uddfa\ud83c\uddf8\ud83e\udd1c\ud83c\uddeb\ud83c\uddf7 #DonaldTrump fustige la #France sur #Twitter \n@andrebercoff r\u00e9v\u00e8le pourquoi le #Pr\u00e9sident am\u00e9ricain est sorti furieux\u2026",
        "date": "Fri Nov 16 17:53:07 +0000 2018",
        "hashtags": [
            {
                "text": "DonaldTrump",
                "indices": [
                    22,
                    34
                ]
            },
            {
                "text": "France",
                "indices": [
                    46,
                    53
                ]
            },
            {
                "text": "Twitter",
                "indices": [
                    58,
                    66
                ]
            },
            {
                "text": "Pr\u00e9sident",
                "indices": [
                    101,
                    111
                ]
            }
        ],
        "number_of_retweets": 732,
        "number_of_likes": 7562
    },
    "tweet_86": {
        "tweet_id": 1063488636073713665,
        "author": 988821891531100162,
        "text": "RT @SDIS34: [Information] \ud83d\udd36 Quand le #Pr\u00e9sident des @PompiersFR fait de l\u2019information par un Tweet d\u00e9cal\u00e9... https://t.co/RBN5i8JFZ4",
        "date": "Fri Nov 16 17:47:04 +0000 2018",
        "hashtags": [
            {
                "text": "Pr\u00e9sident",
                "indices": [
                    37,
                    47
                ]
            }
        ],
        "number_of_retweets": 2,
        "number_of_likes": 1203
    },
    "tweet_87": {
        "tweet_id": 1063487407142653954,
        "author": 837773778516082689,
        "text": "RT @juliensueres: Un sondage @IfopOpinion @lamarsweb sans appel ! 80,5% des habitants du #Gard et de l'#Herault rejettent la politique #Mac\u2026",
        "date": "Fri Nov 16 17:42:11 +0000 2018",
        "hashtags": [
            {
                "text": "Gard",
                "indices": [
                    89,
                    94
                ]
            },
            {
                "text": "Herault",
                "indices": [
                    103,
                    111
                ]
            }
        ],
        "number_of_retweets": 1,
        "number_of_likes": 14908
    },
    "tweet_88": {
        "tweet_id": 1063485946753105920,
        "author": 934849460,
        "text": "RT @merojic: Dictature des \u00e9lites : Le rappeur Kalash Criminel contraint de retirer de son album un titre qualifiant Brigitte Macron de \u201cco\u2026",
        "date": "Fri Nov 16 17:36:22 +0000 2018",
        "hashtags": [],
        "number_of_retweets": 1,
        "number_of_likes": 3077
    },
    "tweet_89": {
        "tweet_id": 1063485820252946433,
        "author": 2999639409,
        "text": "RT @saltarrello: Je me demande si quelqu'un d'important ne viendrait pas \u00e0 #Besancon ? Quelle #empreintecarbone pour un tel d\u00e9placement du\u2026",
        "date": "Fri Nov 16 17:35:52 +0000 2018",
        "hashtags": [
            {
                "text": "Besancon",
                "indices": [
                    75,
                    84
                ]
            },
            {
                "text": "empreintecarbone",
                "indices": [
                    94,
                    111
                ]
            }
        ],
        "number_of_retweets": 77,
        "number_of_likes": 27230
    }
}